https://khr0x40sh.wordpress.com/2013/12/10/smashthestack-org-logic-tutorialhints/
https://raw.githubusercontent.com/roku6185/smashthestack/master/logic/level1/level1.php
https://regala.im/2013/02/26/smashthestack-logic-level-1-writeup/
http://seanmurphree.com/blog/?p=255
