https://raw.githubusercontent.com/zsiciarz/euler.rs/master/src/solutions/problem67.rs
https://raw.githubusercontent.com/nayuki/Project-Euler-solutions/master/java/p067.java
https://raw.githubusercontent.com/kdungs/euler/master/067/euler_67.py
https://www.mathblog.dk/project-euler-67-efficient-algorithm-triangle/
