B8 04 00 00 00 BB 01 00 00 00 B9 A1 91 04 08 BA
26 00 00 00 CD 80 B8 03 00 00 00 31 DB B9 88 91
04 08 BA 33 00 00 00 CD 80 31 C9 B8 80 80 04 08
BB 23 81 04 08 E8 5B 00 00 00 89 CA B9 19 00 00
00 B8 55 91 04 08 BB 88 91 04 08 D1 CA 8A 44 08
FF 8A 5C 0B FF 30 D8 30 D0 75 1B 49 75 E3 B8 04
00 00 00 BB 01 00 00 00 B9 24 91 04 08 BA 26 00
00 00 CD 80 EB 16 B8 04 00 00 00 BB 01 00 00 00
B9 4A 91 04 08 BA 0B 00 00 00 CD 80 B8 01 00 00
00 31 DB CD 80 29 C3 31 C9 02 08 C1 C1 03 40 4B
75 F7 C3
1E CD 2A D5 34 87 FC 78 64 35 9D EC DE 15 AC 97 99 AF 96 DA 79 26 4F 32 E0
