https://github.com/CyrilP/wechall/blob/master/Bacon.java
http://winkar.github.io/2015/01/24/wechall.html
https://joizel.readthedocs.io/ko/latest/wargame/crypto/[wechall]%20Baconian.html
https://delcoding.github.io/2017/11/wechall-write1/#2

