https://www.youtube.com/watch?v=d2nVDoVr0jE
https://www.youtube.com/watch?v=j9EEC8QO2qM
https://www.youtube.com/watch?v=eJYWdkmoEMM
https://www.youtube.com/watch?v=axNz6hsvy8I
https://www.youtube.com/watch?v=xo_UWqRzFeo
http://www.hackingarticles.in/hack-the-box-challenge-sense-walkthrough/
https://drive.google.com/file/d/1Y3DmCRExOqn3fKq9HRWxGzLobme2K7lZ/view
https://www.absolomb.com/2018-03-24-HackTheBox-Sense/
