https://www.youtube.com/watch?v=gfh7wHhMlWg
https://www.youtube.com/watch?v=2EW78bkwztg
https://www.youtube.com/watch?v=8nECU2GZ9go
https://www.youtube.com/watch?v=HovCpP3J4aQ
https://reedphish.wordpress.com/2018/04/29/trollcave-1-2-walkthrough/
https://ohexfortyone.com/2018/03/trollcave-boot-to-root-vm-walkthrough-part-one.html
https://innogen-security.com/vulnhub-trollcave-walkthrough-part1/
https://innogen-security.com/vulnhub-trollcave-walkthrough-part2/
https://davidyat.es/2018/04/08/walkthrough-trollcave/
https://hackso.me/trollcave-1.2-walkthrough/
