https://raw.githubusercontent.com/To1ne/cryptopals-c/master/challenge_03/main.c
https://raw.githubusercontent.com/shierve/matasano-crypto-challenges/master/set3.cc
https://raw.githubusercontent.com/adamenger/cryptopals-solutions/master/3/three.go
https://raw.githubusercontent.com/yaychris/cryptopals/master/src/challenge3.rs
https://raw.githubusercontent.com/Daeinar/cryptopals/master/src/c03.rs
https://raw.githubusercontent.com/jaybosamiya/cryptopals-solutions/master/set1/3/run.py
https://raw.githubusercontent.com/akalin/cryptopals-python3/master/challenge3.py
https://raw.githubusercontent.com/aklap/cryptopals-solutions/master/set_1/challenge3/solution3.py
https://raw.githubusercontent.com/ricpacca/cryptopals/master/S1C03.py
https://raw.githubusercontent.com/technion/matasano_challenge/master/set1/chal3/chal3.rb
