http://hackerorgsolution.blogspot.com.co/2014/09/post-captain.html
https://raw.githubusercontent.com/charles-wangkai/hacker.org/master/challenge/PostCaptain.py
https://raw.githubusercontent.com/luceatnobis/challenges/master/hacker.org/post_captain/post.html
