https://forum.hackthebox.eu/discussion/894/nightmare-unintended-root-write-up-by-0xea31
https://forum.hackthebox.eu/discussion/891/nightmare-write-up-by-0xea31
https://ironhackers.es/en/writeups/writeup-nightmare-hackthebox/
https://github.com/Hackplayers/hackthebox-writeups/blob/master/machines/Nightmare/o00o_nightmare.pdf
https://www.youtube.com/watch?v=frh-jYaUvrU
https://www.hackingarticles.in/hack-the-box-nightmare-walkthrough/
