https://www.youtube.com/watch?v=SuftXzld0O8
http://sp4hack.blogspot.com.co/2012/09/hack-this-site-javascript-3.html
http://www.gensale.net/hts-javascript-level-3/
http://blog.abhishekg.com/2011/12/javascript-mission-3-math-time/
https://www.youtube.com/watch?v=aW5nYLiy_uA
https://hackthissitesoltution.wordpress.com/2011/01/14/javascript-missions/
https://raw.githubusercontent.com/m-jowett/hackthissite/master/javascript/3.md
