https://raw.githubusercontent.com/nayuki/Project-Euler-solutions/master/java/p037.java
https://raw.githubusercontent.com/sile/euler.rs/master/euler_01/src/problem037.rs
https://raw.githubusercontent.com/kdungs/euler/master/037/euler_37.py
https://www.mathblog.dk/project-euler-37-truncatable-primes/
https://github.com/zimpha/competitive-programming/raw/master/project-euler/volume01/37.cc
