https://raw.githubusercontent.com/akueisara/datastructures/master/week%201/tree_height/tree-height.py
https://raw.githubusercontent.com/akueisara/datastructures/master/week%201/tree_height/tree-height.cpp
https://raw.githubusercontent.com/DaniPhii/Tree-Height-Meter/master/Altura.java
https://raw.githubusercontent.com/MadcapJake/codeabbey-problems/master/perl6/rounding/rounding.pl
https://raw.githubusercontent.com/JesseClarkND/codeabbey_in_C-NET/master/Tree%20Height%20Measurement
