https://raw.githubusercontent.com/Daeinar/cryptopals/master/src/c24.rs
https://raw.githubusercontent.com/jaybosamiya/cryptopals-solutions/master/set3/24/run.py
https://raw.githubusercontent.com/jaybosamiya/cryptopals-solutions/master/set3/24/mersenne.py
https://raw.githubusercontent.com/jaybosamiya/cryptopals-solutions/master/set3/24/stream_cipher.py
https://raw.githubusercontent.com/akalin/cryptopals-python3/master/challenge24.py
https://raw.githubusercontent.com/technion/matasano_challenge/master/set3/chal24/chal24.rb
