https://raw.githubusercontent.com/AndyCYao/codeabbey/master/CA_Prob_122_Quick_Sort.py
https://raw.githubusercontent.com/AlexMckey/CodeAbbey_Scala/master/src/QuickSort.scala
https://raw.githubusercontent.com/KrauserSan/CodeAbbey_SolutionSet/master/Java_Solutions/QuickSort.java
https://raw.githubusercontent.com/JesseClarkND/codeabbey_in_C-NET/master/QuickSort
