https://raw.githubusercontent.com/Alackey/codeabbey-projects/master/Dice%20Rolling/src/Main.java
https://raw.githubusercontent.com/PunitGr/codeabbey/master/Dice%20Rolling.py
https://raw.githubusercontent.com/marclerodrigues/ruby_exercises/master/dice_rolling.rb
https://raw.githubusercontent.com/gravoo/codeabbey/master/Dice%20Rolling%20.cpp
https://raw.githubusercontent.com/lpil/learning-js/master/codeabbey/011-dice-rolling.js
https://raw.githubusercontent.com/Tempurturtul/CodeAbbey/master/C%23/DiceRolling.cs
https://raw.githubusercontent.com/chriswood/codeabbey/master/ca12.lisp
https://gist.githubusercontent.com/felipelavinz/9656913/raw/be4c0ce34aadf5dc5d68e74e439dafa5c1c7b9c5/rand-string.php
https://gist.githubusercontent.com/earthgecko/3089509/raw/37d5b718b5b03389ca609d5b63ecd02cd6de6e5b/bash.generate.random.alphanumeric.string.sh
https://raw.githubusercontent.com/mmcdon20/code_abbey/master/src/main/scala/Abbey043.scala
https://raw.githubusercontent.com/Littletonconnor/codeabbey-solutions/master/Dice_Rolling.c
https://raw.githubusercontent.com/SmellyIrishMan/CodeAbbeyProblems/master/CodeAbbeyProblems/DiceRolling.fs
https://raw.githubusercontent.com/vinitkantrod/go-codeabbey/master/13_dice_rolling/main.go
https://raw.githubusercontent.com/JesseClarkND/codeabbey_in_C-NET/master/Dice%20Rolling
https://gitlab.com/CodeArtisan/codeabbey/raw/master/problem_43/solution.rkt
