https://raw.githubusercontent.com/cacophonix/SPOJ/master/BSHEEP.cpp
https://raw.githubusercontent.com/resilva87/spoj-solutions/master/BSHEEP.go
https://raw.githubusercontent.com/TomConerly/Competition-Programming/master/SPOJ/BSHEEP.java
