http://juancho056.blogspot.com.co/2016/01/canyouhack_27.html
http://hacksitesolutions.blogspot.com.co/2015/10/solution-canyouhackit-cryptography_17.html
https://raw.githubusercontent.com/feix/ctf-writeup/master/canyouhackit/cryptography/solution2
