https://raw.githubusercontent.com/zafartahirov/HackerRank/master/Warmup/Maximizing%20XOR/solution.c
https://raw.githubusercontent.com/MaskRay/HackerRank/master/and-xor-or_bst.cc
https://gist.githubusercontent.com/trendsetter37/cd3b04a49980f3f13717/raw/746ed6391ef89141f2bbcde560da5d61108844da/max_xor.cs
https://raw.githubusercontent.com/charles-wangkai/hackerrank/master/and-xor-or/Solution.java
https://raw.githubusercontent.com/dbhrockzz/HackerRank/master/AND%20xor%20OR.py
