https://raw.githubusercontent.com/c650/hackerrank-solutions/master/Artificial-Intelligence/Bot%20Building/bot-clean-large.cpp
https://raw.githubusercontent.com/nikhilranjan7/AI-hackerrank/master/bot_building/botclean.py
https://raw.githubusercontent.com/zmoazeni/hackerrank-solutions/master/rust/botclean/src/main.rs
