500 Yay!

1000 Lower Higher Higher Higher Lower Lower Lower Yay!

754 Lower Higher Higher Yay!

669 Higher Lower Lower Lower Higher Higher Lower Yay!

831 Higher Lower Higher Lower Higher Yay!

853 Higher Lower Higher Lower Lower Yay!

902 Lower Lower Higher Yay!

546 Higher Lower Lower Higher Yay!

810 Higher Lower Higher Lower Lower Higher Yay!

835 Higher Higher Lower Higher Yay!

592 Lower Higher Lower Higher Lower Lower Yay!

990 Lower Lower Higher Higher Lower Lower Yay!

508 Lower Lower Lower Higher Lower Yay!

814 Lower Higher Higher Lower Higher Yay!

763 Higher Higher Lower Lower Lower Higher Lower Yay!

864 Higher Higher Lower Higher Yay!

961 Lower Higher Lower Higher Yay!

519 Higher Lower Higher Yay!

582 Lower Lower Higher Higher Yay!

869 Higher Higher Lower Higher Higher Yay!
