YMJ VZNHP GWTBS KTC OZRUX TAJW YMJ QFED ITL TK HFJXFW FSI DTZW ZSNVZJ XTQZYNTS NX JSKUSRFGTFNH

XLI UYMGO FVSAR JSB NYQTW SZIV XLI PEDC HSK SJ GEIWEV ERH CSYV YRMUYI WSPYXMSR MW IRJTRQEFSEMG
WKH TXLFN EURZQ IRA MXPSV RYHU WKH ODCB GRJ RI FDHVDU DQG BRXU XQLTXH VROXWLRQ LV HQISQPDERDLF
VJG SWKEM DTQYP HQZ LWORU QXGT VJG NCBA FQI QH ECGUCT CPF AQWT WPKSWG UQNWVKQP KU GPHRPOCDQCKE
UIF RVJDL CSPXO GPY KVNQT PWFS UIF MBAZ EPH PG DBFTBS BOE ZPVS VOJRVF TPMVUJPO JT FOGQONBCPBJD
THE QUICK BROWN FOX JUMPS OVER THE LAZY DOG OF CAESAR AND YOUR UNIQUE SOLUTION IS ENFPNMABOAIC
SGD PTHBJ AQNVM ENW ITLOR NUDQ SGD KZYX CNF NE BZDRZQ ZMC XNTQ TMHPTD RNKTSHNM HR DMEOMLZANZHB
RFC OSGAI ZPMUL DMV HSKNQ MTCP RFC JYXW BME MD AYCQYP YLB WMSP SLGOSC QMJSRGML GQ CLDNLKYZMYGA
QEB NRFZH YOLTK CLU GRJMP LSBO QEB IXWV ALD LC ZXBPXO XKA VLRO RKFNRB PLIRQFLK FP BKCMKJXYLXFZ
PDA MQEYG XNKSJ BKT FQILO KRAN PDA HWVU ZKC KB YWAOWN WJZ UKQN QJEMQA OKHQPEKJ EO AJBLJIWXKWEY
OCZ LPDXF WMJRI AJS EPHKN JQZM OCZ GVUT YJB JA XVZNVM VIY TJPM PIDLPZ NJGPODJI DN ZIAKIHVWJVDX
NBY KOCWE VLIQH ZIR DOGJM IPYL NBY FUTS XIA IZ WUYMUL UHX SIOL OHCKOY MIFONCIH CM YHZJHGUVIUCW
MAX JNBVD UKHPG YHQ CNFIL HOXK MAX ETSR WHZ HY VTXLTK TGW RHNK NGBJNX LHENMBHG BL XGYIGFTUHTBV
LZW IMAUC TJGOF XGP BMEHK GNWJ LZW DSRQ VGY GX USWKSJ SFV QGMJ MFAIMW KGDMLAGF AK WFXHFESTGSAU
KYV HLZTB SIFNE WFO ALDGJ FMVI KYV CRQP UFX FW TRVJRI REU PFLI LEZHLV JFCLKZFE ZJ VEWGEDRSFRZT
JXU GKYSA RHEMD VEN ZKCFI ELUH JXU BQPO TEW EV SQUIQH QDT OEKH KDYGKU IEBKJYED YI UDVFDCQREQYS
IWT FJXRZ QGDLC UDM YJBEH DKTG IWT APON SDV DU RPTHPG PCS NDJG JCXFJT HDAJIXDC XH TCUECBPQDPXR
HVS EIWQY PFCKB TCL XIADG CJSF HVS ZONM RCU CT QOSGOF OBR MCIF IBWEIS GCZIHWCB WG SBTDBAOPCOWQ
GUR DHVPX OEBJA SBK WHZCF BIRE GUR YNML QBT BS PNRFNE NAQ LBHE HAVDHR FBYHGVBA VF RASCAZNOBNVP
FTQ CGUOW NDAIZ RAJ VGYBE AHQD FTQ XMLK PAS AR OMQEMD MZP KAGD GZUCGQ EAXGFUAZ UE QZRBZYMNAMUO
ESP BFTNV MCZHY QZI UFXAD ZGPC ESP WLKJ OZR ZQ NLPDLC LYO JZFC FYTBFP DZWFETZY TD PYQAYXLMZLTN
DRO AESMU LBYGX PYH TEWZC YFOB DRO VKJI NYQ YP MKOCKB KXN IYEB EXSAEO CYVEDSYX SC OXPZXWKLYKSM
CQN ZDRLT KAXFW OXG SDVYB XENA CQN UJIH MXP XO LJNBJA JWM HXDA DWRZDN BXUDCRXW RB NWOYWVJKXJRL
BPM YCQKS JZWEV NWF RCUXA WDMZ BPM TIHG LWO WN KIMAIZ IVL GWCZ CVQYCM AWTCBQWV QA MVNXVUIJWIQK
AOL XBPJR IYVDU MVE QBTWZ VCLY AOL SHGF KVN VM JHLZHY HUK FVBY BUPXBL ZVSBAPVU PZ LUMWUTHIVHPJ
ZNK WAOIQ HXUCT LUD PASVY UBKX ZNK RGFE JUM UL IGKYGX GTJ EUAX ATOWAK YURAZOUT OY KTLVTSGHUGOI
YMJ VZNHP GWTBS KTC OZRUX TAJW YMJ QFED ITL TK HFJXFW FSI DTZW ZSNVZJ XTQZYNTS NX JSKUSRFGTFNH
