https://raw.githubusercontent.com/mneudert/codeeval/master/easy/n-mod-m/cs.cs
https://raw.githubusercontent.com/mneudert/codeeval/master/easy/n-mod-m/go.go
https://raw.githubusercontent.com/mneudert/codeeval/master/easy/n-mod-m/js.js
https://gist.githubusercontent.com/yuheiomori/7382941/raw/2cc0ebc6ecc4ca07b50b8dee4d47c0f9c6132c26/n_mod_m.py
https://raw.githubusercontent.com/schrodervictor/codeeval-challenges/master/easy/N-Mod-M/solution-rev-1.php
https://raw.githubusercontent.com/schrodervictor/codeeval-challenges/master/easy/N-Mod-M/solution-rev-4.lua
https://raw.githubusercontent.com/SedaKunda/CodeEval/master/Easy-Level/modulus.java
