https://raw.githubusercontent.com/adityagupta1089/Codeforces-Solutions/master/P233A.java
https://raw.githubusercontent.com/nikzsaz/Codeforces-solution/master/233A-PerfectPermutation.cpp
https://codeforces.com/problemset/problem/233/A
