https://raw.githubusercontent.com/jiteshsunhala/spoj-solutions/master/BINSTIRL.cpp
https://raw.githubusercontent.com/diegoeche/SpojProblems/master/106.hs
https://raw.githubusercontent.com/sreedishps/SPOJ/master/src/BINSTIRL.java
https://raw.githubusercontent.com/cmrmahesh/spoj/master/BINSTIRL.py
