https://raw.githubusercontent.com/alexanderscott/HackerRank/master/DataStructures/LinkedLists/compare-two-linked-lists.cpp
https://raw.githubusercontent.com/Transfusion/hackerrank-solutions/master/Data%20Structures/Linked%20Lists/Compare%20two%20linked%20lists.java
https://raw.githubusercontent.com/MaskRay/HackerRank/master/compare-two-linked-lists.py
