https://raw.githubusercontent.com/codejoydo/codeforces/master/266a.c
https://raw.githubusercontent.com/nikzsaz/Codeforces-solution/master/266A-StonesOnTheTable.cpp
https://raw.githubusercontent.com/yeicol/CodeForces/master/CF266AStonesOnTheTable.java
https://raw.githubusercontent.com/changyuheng/codeforces-solutions/master/266a.py
