https://raw.githubusercontent.com/nayuki/Project-Euler-solutions/master/java/p120.java
https://raw.githubusercontent.com/nayuki/Project-Euler-solutions/master/python/p120.py
https://www.mathblog.dk/project-euler-120-maximum-remainder/
