https://raw.githubusercontent.com/codejoydo/codeforces/master/158a.c
https://raw.githubusercontent.com/hokein/codeforces/master/round150/a.cpp
https://raw.githubusercontent.com/adityagupta1089/Codeforces-Solutions/master/P150A.java
