https://raw.githubusercontent.com/MaskRay/HackerRank/master/2s-complement.cc
https://raw.githubusercontent.com/havelessbemore/hackerrank/master/algorithms/bit_manipulation/2s-complement.java
https://www.geeksforgeeks.org/1s-2s-complement-binary-number/
https://algoexplode.wordpress.com/2013/07/20/2s-complement-hackerrank/
