https://raw.githubusercontent.com/charles-wangkai/hacker.org/master/challenge/XOREval.py
http://hackerorgsolution.blogspot.com.co/2014/09/xor-eval.html
https://raw.githubusercontent.com/imaohw/hacker.org/master/002/solve.pl

