OK - typical codeabbey
[
sol(code): #0 codeabbey, 78 (5)

- others: 1 in, 2 out, 3 total.
- score: 10 initial, 15 final, 5 progress.
- global-rank: 31375 initial, 30375 final, 1000 progress.
- national-rank: 400 initial, 380 final, 20 progress.
- effort: 5 hours during immersion, productivity 1 points/hour.
]
OK - typical hacking site
[
sol(hack): #0 some-hacking-site, challenge-name (hard)

- others: 1 in, 2 out, 3 total.
- score: 10 initial, 15 final, 5 progress.
- global-rank: 31375 initial, 30375 final, 1000 progress.
- national-rank: 400 initial, 380 final, 20 progress.
- effort: 5.21 hours during challenges, productivity 1 points/hour.
]
BAD - no separating line
[
sol(hack): site-name, 78 (9.63)
- others: 1 in, 2 out, 3 total.
- score: 10 initial, 15 final, 5 progress.
- global-rank: 31375 initial, 30375 final, 1000 progress.
- national-rank: 400 initial, 380 final, 20 progress.
- effort: 5 hours during immersion, productivity 1 points/hour.
]
BAD - others incorrectly computed
[
sol(hack): site-name, 78 (9.63)

- others: 1 in, 2 out, 12 total.
- score: 10 initial, 15 final, 5 progress.
- global-rank: 31375 initial, 30375 final, 1000 progress.
- national-rank: 400 initial, 380 final, 20 progress.
- effort: 5 hours during immersion, productivit y 1 points/hour.
]
BAD - integer score incorrectly computed
[
sol(code): site-name, 78 (9.63)

- others: 1 in, 2 out, 3 total.
- score: 10 initial, 15 final, 6 progress.
- global-rank: 31375 initial, 30375 final, 1000 progress.
- national-rank: 400 initial, 380 final, 20 progress.
- effort: 2 hours during immersion, productivity 3 points/hour.
]
BAD - floating score incorrectly computed beyond tolerance
[
sol(hack): site-name, 78 (9.63)

- others: 1 in, 2 out, 3 total.
- score: 10.3 initial, 15.4 final, 5.2 progress.
- global-rank: 31375 initial, 30375 final, 1000 progress.
- national-rank: 400 initial, 380 final, 20 progress.
- effort: 5.2 hours during immersion, productivity 1 points/hour.
]
BAD - final score less than initial
[
sol(code): site-name, 78 (9.63)

- others: 1 in, 2 out, 3 total.
- score: 10 initial, 5 final, 5 progress.
- global-rank: 31375 initial, 30375 final, 1000 progress.
- national-rank: 400 initial, 380 final, 20 progress.
- effort: 5 hours during immersion, productivity 1 points/hour.
]
BAD - global rank incorrectly computed
[
sol(hack): site-name, 78 (9.63)

- others: 1 in, 2 out, 3 total.
- score: 10 initial, 15 final, 5 progress.
- global-rank: 31375 initial, 30375 final, 100 progress.
- national-rank: 400 initial, 380 final, 20 progress.
- effort: 5 hours during immersion, productivit y 1 points/hour.
]
BAD - global rank final larger than initial
[
sol(code): site-name, 78 (9.63)

- others: 1 in, 2 out, 3 total.
- score: 10 initial, 15 final, 5 progress.
- global-rank: 31375 initial, 33375 final, 1000 progress.
- national-rank: 400 initial, 380 final, 20 progress.
- effort: 5 hours during immersion, productivity 1 points/hour.
]
BAD - national rank incorrectly computed
[
sol(hack): site-name, 78 (9.63)

- others: 1 in, 2 out, 3 total.
- score: 10 initial, 15 final, 5 progress.
- global-rank: 31375 initial, 30375 final, 1000 progress.
- national-rank: 400 initial, 380 final, 2 progress.
- effort: 5 hours during immersion, productivit y 1 points/hour.
]
BAD - national rank final larger than initial
[
sol(code): site-name, 78 (9.63)

- others: 1 in, 2 out, 3 total.
- score: 10 initial, 15 final, 5 progress.
- global-rank: 31375 initial, 32375 final, 1000 progress.
- national-rank: 400 initial, 380 final, 20 progress.
- effort: 5 hours during immersion, productivit y 1 points/hour.
]
BAD - effort as hours and minutes
[
sol(hack): site-name, 78 (9.63)

- others: 1 in, 2 out, 3 total.
- score: 10 initial, 15 final, 5 progress.
- global-rank: 31375 initial, 30375 final, 1000 progress.
- national-rank: 400 initial, 380 final, 20 progress.
- effort: 5 hours and 20 minutes during immersion, productivit y 1 points/hour.
]
BAD - NAs
[
sol(code): site-name, NA (9.63)

- others: 1 in, 2 out, 3 total.
- score: 10 initial, 15 final, 5 progress.
- global-rank: 31375 initial, 30375 final, 1000 progress.
- national-rank: 400 initial, 380 final, 20 progress.
- effort: 5 hours during immersion, productivit y 1 points/hour.
]
BAD - multiple mistakes. Only first one should be reported
[
sol(code): site-name, 78 (9.63)

- others: 1 in, 2 out, 2 total.
- score: 10 initial, NA final, 5 progress.
- global-rank: 31375 initial, 30375 final, 1000 progress.
- national-rank: 400 initial, 580 final, 20 progress.
- effort: 5ff hours during immersion, productivit y 1 points/hour.
]
BAD - Productivity incorrectly computed
[
sol(hack): site-name, 78 (9.63)

- others: 1 in, 2 out, 3 total.
- score: 10 initial, 15 final, 5 progress.
- global-rank: 31375 initial, 30375 final, 1000 progress.
- national-rank: 400 initial, 380 final, 20 progress.
- effort: 10 hours during immersion, productivity 0.39 points/hour.
]
OK - typical other commit
[
style(front): #10 update readme.adoc
]
BAD - chgs-spaces-2
[
sol(hack): rootme, audio-stegano(9)

- others: 0 in, 0 out, 0 total.
- score: 0 initial, 9 final, 9 progress.
- global-rank: 17193 initial, 11953 final, 5240 progress.
- national-rank: 402 initial, 395 final, 7 progress.
- effort: 18.0 hours during challenges, productivity 0.5 points/hour.
]
BAD - sys-spaces-2
[
sol(hack): bwapp,a1-htmli-stored-blog-csrf

- discovered vulnerabilities: 12 by me, 110 already in repo, 122 total.
- total estimated vulnerabilities in system:   332
- discovery percentage:                        36.74%
- effort: 5 hours during immersion.
]
BAD - chgs-spaces-3
[
sol(hack):rootme,audio-stegano(9)

- others: 0 in, 0 out, 0 total.
- score: 0 initial, 9 final, 9 progress.
- global-rank: 17193 initial, 11953 final, 5240 progress.
- national-rank: 402 initial, 395 final, 7 progress.
- effort: 18.0 hours during challenges, productivity 0.5 points/hour.
]
BAD - hack-spaces-3
[
sol(hack):bwapp,a1-htmli-stored-blog-csrf

- discovered vulnerabilities: 12 by me, 110 already in repo, 122 total.
- total estimated vulnerabilities in system:   332
- discovery percentage:                        36.74%
- effort: 5 hours during immersion.
]
