https://raw.githubusercontent.com/igor-kutepov/codeabbey/master/src/main/java/com/kutepov/samples/codeabbey/PrimeRanges.java
https://raw.githubusercontent.com/AndyCYao/codeabbey/master/CA_prob_62.py
https://raw.githubusercontent.com/DionysiosB/CodeAbbey/master/PrimeRanges.cpp
https://raw.githubusercontent.com/HouseBreaker/SoftUni-Programming-Fundamentals/master/02.%20Data%20Types%20and%20Methods/Exercises/24.%20Primes%20in%20Given%20Range/PrimeRange.cs
https://raw.githubusercontent.com/kingspp/8086-MicroProcessor/master/Prime-Check.asm
https://gist.githubusercontent.com/hjr3/2020292/raw/4f499a23eaed2ccbbf69c8b40549383c3ef84800/primes.c
https://gist.githubusercontent.com/thinkphp/5348581/raw/c4aa65d2a443881b8abc909c3120307597f5df48/gistfile1.lisp
https://gist.githubusercontent.com/lawlesst/2731888/raw/223a2b67b409a5523f3c3a0eb8d8f10c4e6dd6da/calcprime.php
https://raw.githubusercontent.com/mmcdon20/code_abbey/master/src/main/scala/Abbey062.scala
