http://www.hackingarticles.in/hack-the-wintermute-1-ctf-challenge/
https://www.peerlyst.com/posts/wintermute-vulnhub-ctf-walkthrough-motasem-hamdan
https://www.youtube.com/watch?v=z5naNi69cSg
https://greekhacking.gr/topic/46296-hack-the-wintermute-1-ctf-challenge/
