https://raw.githubusercontent.com/nayuki/Project-Euler-solutions/master/java/p122.java
https://raw.githubusercontent.com/nayuki/Project-Euler-solutions/master/python/p122.py
https://www.mathblog.dk/project-euler-122-efficient-exponentiation/
