https://rundata.wordpress.com/2013/03/21/overthewire-bandit-wargame-solutions-1-24/
https://infamoussyn.com/2013/11/08/overthewire-bandit-level-0-25-writeup-completed/
https://jdow.io/blog/2017/12/16/overthewire-bandit-wargame-walkthrough/#level-6---7
https://hackmethod.com/overthewire-bandit-7/
https://www.yalpski.net/bandit-wargame/bandit-walkthrough-level-7
http://sp4hack.blogspot.com.co/2014/01/overthewire-bandit-level-7-to-level-8.html
https://alexandervoidstar.wordpress.com/2016/01/30/overthewire-bandit-level-7/
https://raw.githubusercontent.com/Cathon/mySolutions/master/overthewire/Bandit/Level_7.md
https://raw.githubusercontent.com/lv22/otw-natas/master/L07/level7.txt
https://medium.com/@Kan1shka9/overthewire-wargames-bandit-walkthrough-df2b86826c67
https://github.com/milescrabill/overthewire-solutions/blob/master/Bandit.md#level-7
https://www.youtube.com/watch?v=kQavV7biOJY
https://www.youtube.com/watch?v=34_DDIAkxdY
https://www.youtube.com/watch?v=NReJMvYLWQI
https://www.youtube.com/watch?v=zuMwk8pI9F0
https://raw.githubusercontent.com/Lorenyx/OverTheWire-Solutions/master/bandit/level_7.md
