https://github.com/p1o2p3u1/WeChall/blob/master/Training/ASCII.md
http://sp4hack.blogspot.com.co/2012/10/we-chall-training-ascii.html
http://winkar.github.io/2015/01/24/wechall.html
https://raw.githubusercontent.com/BirkhoffLee/wechall/master/exploit/Training%20ASCII/README.md
https://raw.githubusercontent.com/arma26/challenge/master/wechall.py
https://raw.githubusercontent.com/james9909/PracticeCTF/master/WeChall/ASCII/Solution.py
https://raw.githubusercontent.com/lc4t/OtherFiles/master/md/WeChall.md
https://gist.github.com/trietptm/5553757
http://sithlab.tistory.com/1093
http://c6h4cl2.lab.uy.to/1093
https://raw.githubusercontent.com/CyrilP/wechall/master/Bin2ascii.java
http://byd.dropsec.xyz/2016/03/04/WeChall_writeup/#Training-PHP-LFI
https://medium.com/bugbountywriteup/wechall-wargame-solutions-76f60ea39b16
https://github.com/BirkhoffLee/wechall/tree/master/exploit/Training%20ASCII

