https://raw.githubusercontent.com/MaskRay/HackerRank/master/bfsshortreach.cc
https://raw.githubusercontent.com/jvujcic/HackerRank/master/Algorithms/Breadth%20First%20Search%20-%20Shortest%20Reach.cpp
https://raw.githubusercontent.com/alexprut/HackerRank/master/Algorithms/Graph%20Theory/Breadth%20First%20Search%20Shortest%20Reach/Solution.java
https://raw.githubusercontent.com/Karthikvb/hacker-rank/master/algorithms/graph-theory/bfs-shortest-reach/bfs-shortest-reach.py
