https://raw.githubusercontent.com/codejoydo/codeforces/master/492b.c
https://raw.githubusercontent.com/mpfeifer1/Codeforces/master/492b.cpp
https://raw.githubusercontent.com/changyuheng/codeforces-solutions/master/492b.go
https://raw.githubusercontent.com/adityagupta1089/Codeforces-Solutions/master/P492B.java
