https://www.mathblog.dk/project-euler-19/
https://raw.githubusercontent.com/kdungs/euler/master/019/euler_19.c
https://raw.githubusercontent.com/nayuki/Project-Euler-solutions/master/java/p019.java
https://raw.githubusercontent.com/nayuki/Project-Euler-solutions/master/mathematica/p019.mathematica
https://raw.githubusercontent.com/zsiciarz/euler.rs/master/src/solutions/problem19.rs
https://raw.githubusercontent.com/zimpha/competitive-programming/master/project-euler/volume01/19.cc
