https://www.youtube.com/watch?v=wtahzm_R8e4
https://www.youtube.com/watch?v=S2mQBXcW3P0
https://www.youtube.com/watch?v=OnfSeRnpR0U
https://www.youtube.com/watch?v=TDv2dZnzE6Y
https://www.youtube.com/watch?v=K0q10q9BQAk
https://taind.wordpress.com/2018/01/03/root-me-ldap-injection-authentication/
https://jeonyoungsin.tistory.com/290
http://chaosec.top/2018/08/06/rootme1/
