https://raw.githubusercontent.com/igor-kutepov/codeabbey/master/src/main/java/com/kutepov/samples/codeabbey/GameOf2048.java
https://raw.githubusercontent.com/Xzya/CodeAbbeySolutions/master/GameOf2048.py
https://raw.githubusercontent.com/JesseClarkND/codeabbey_in_C-NET/master/Game%20of%202048
