https://www.youtube.com/watch?v=SRmvRGUuuno
https://www.youtube.com/watch?v=RMcGUrRzXVI
https://drive.google.com/file/d/1iS3cwGlX2PLBAskszYt4n4HG6D-bEQ_Q/view
https://www.hackingarticles.in/hack-the-box-challenge-mirai-walkthrough/
