https://raw.githubusercontent.com/p1o2p3u1/WeChall/master/Training/Regex.md
http://winkar.github.io/2015/01/24/wechall.html
https://raw.githubusercontent.com/BirkhoffLee/wechall/master/exploit/Training%20Regex/README.md
https://raw.githubusercontent.com/james9909/PracticeCTF/master/WeChall/Regex/Solution.txt
