https://raw.githubusercontent.com/rootulp/exercism/master/javascript/grains/grains.js
https://raw.githubusercontent.com/rootulp/exercism/master/python/grains/grains.py
https://raw.githubusercontent.com/rootulp/exercism/master/ruby/exercises/grains/grains.rb
https://exercism.io/tracks/php/exercises/grains/solutions/cfa17855d9be45428d12f297ba667a92
https://exercism.io/tracks/elm/exercises/grains/solutions/9a4a38dbed234512be25ee5f2136b793
https://exercism.io/tracks/erlang/exercises/grains/solutions/bda13957026a48f7a0e009559268ff00
https://exercism.io/tracks/scala/exercises/grains/solutions/b096eb3c9ebb4b2087d1af4359d21d48
https://exercism.io/tracks/go/exercises/grains/solutions/52e30c5468664d1bbe451a3357c1ef7c
https://exercism.io/tracks/perl5/exercises/grains/solutions/1ff53ab0fa304f27b9fa2da397e387e9

