https://raw.githubusercontent.com/IncludeZ/root-me/master/Web-Server/HTTP%20Verb%20Tampering
https://raw.githubusercontent.com/anomen-s/programming-challenges/master/root-me.org/Web-Server/HTTP-verb-tampering/run.sh
https://bitbelle.wordpress.com/2018/01/10/root-me-web-server-challenge-solutions/
https://www.youtube.com/watch?v=WexDfsQT3sE
