https://www.youtube.com/watch?v=13QPmRuhbhU
https://www.youtube.com/watch?v=m0EHlfTgGUU
https://www.youtube.com/watch?v=dMwxIHIabeg
https://www.youtube.com/watch?v=GgaI6vi_IOM
https://www.youtube.com/watch?v=rbP2jwEDlBM
https://www.youtube.com/watch?v=TwG0Rd0hr18
https://www.youtube.com/watch?v=XRW_US5BCxk
https://www.youtube.com/watch?v=8Z4CaC2R-8E
https://www.youtube.com/watch?v=_xSFm3KGxh0
https://www.youtube.com/watch?v=vrjgD0azkCw
https://www.cnblogs.com/lazy0/p/cbdefb1d39e96c46c33ad5d59f67f473.html
https://codeasy.nl/hacking/root-me-antwoorden/csrf-0-protection/
https://gist.githubusercontent.com/vkobel/4de2c7afc62f057d52fd/raw/e955b376ae4654277f9104b9b9a010be2f3f581b/payload.html
