https://www.youtube.com/watch?v=JLh3odEOw5I
https://www.youtube.com/watch?v=YTKdpFdAUU0
http://www.gensale.net/hts-basic-level-10/
http://htstutorial.blogspot.com.co/2009/07/hts-basic-mission-10.html
http://sp4hack.blogspot.com.co/2012/09/hack-this-site-basic-10.html
http://www.amitghosh.net/hts-basic-mission-10-solution/
https://0x1gab.com/2016/06/15/hackthissite-basic-challenge-level-10/
https://es.slideshare.net/ciskosv/hackthissite-3402645
http://blog.abhishekg.com/2011/12/basic-10-javascript-really/
