https://raw.githubusercontent.com/spaghetti-source/Competitive-Programming/master/SPOJ12.cc
https://raw.githubusercontent.com/arvind-kalyan/SPOJ-Solutions/master/Solutions/MAXRAD-10822498.cpp
https://raw.githubusercontent.com/wonjohnchoi/competitions/master/spoj/SPOJ12.py
