https://raw.githubusercontent.com/sile/euler.rs/master/euler_02/src/problem068.rs
https://raw.githubusercontent.com/nayuki/Project-Euler-solutions/master/java/p068.java
https://www.mathblog.dk/project-euler-68-what-is-the-maximum-16-digit-string-for-a-magic-5-gon-ring/
