https://raw.githubusercontent.com/dwiajik/codeforces/master/148A.py
https://raw.githubusercontent.com/nikzsaz/Codeforces-solution/master/148A-InsomniaCure.cpp
https://raw.githubusercontent.com/Erfaniaa/Codeforces/master/148A-Insomniacure.pas
