https://raw.githubusercontent.com/rootulp/exercism/master/java/difference-of-squares/src/main/java/DifferenceOfSquaresCalculator.java
https://raw.githubusercontent.com/rootulp/exercism/master/python/difference-of-squares/difference_of_squares.py
https://raw.githubusercontent.com/rootulp/exercism/master/ruby/exercises/difference-of-squares/squares.rb
https://exercism.io/tracks/php/exercises/difference-of-squares/solutions/878a8dcfd3e2407ea89ff4904c566f70
https://exercism.io/tracks/elm/exercises/difference-of-squares/solutions/5935e2f71eb54e6787de185aa1f84132
https://exercism.io/tracks/scala/exercises/difference-of-squares/solutions/ef77a7a07c8c45aa95bf9996a179c8e6
https://exercism.io/tracks/erlang/exercises/difference-of-squares/solutions/cce6144432de4bffa307ac0f66ceabdf
https://exercism.io/tracks/go/exercises/difference-of-squares/solutions/1e166c9039f54359aa88267aede667b0
https://exercism.io/tracks/perl5/exercises/difference-of-squares/solutions/b024a705d6d845cba1e1b09ee3979378

