http://hackerorgsolution.blogspot.com.co/2014/09/didactic-red.html
https://raw.githubusercontent.com/charles-wangkai/hacker.org/master/challenge/DidacticRed.py
https://raw.githubusercontent.com/luceatnobis/challenges/master/hacker.org/didactic_red/notes
