https://raw.githubusercontent.com/ArnoldM904/CodeAbbey_Solutions/master/Python/id067-Fibonacci_Sequence.py
https://raw.githubusercontent.com/gravoo/codeabbey/master/Fibonacci%20Sequence%20.cpp
https://raw.githubusercontent.com/Tempurturtul/CodeAbbey/master/C%23/FibonacciSequence.cs
https://raw.githubusercontent.com/John-Russell/CodeAbbey/master/Fibonacci%20Sequence.rb
https://raw.githubusercontent.com/KlaudioVito/CodeAbbey/master/FibonacciSequence.java
https://raw.githubusercontent.com/chriswood/codeabbey/master/caid67.lisp
https://raw.githubusercontent.com/danielmmetz/codeabbey/master/id67.hs
https://raw.githubusercontent.com/mmcdon20/code_abbey/master/src/main/scala/Abbey067.scala
https://gitlab.com/CodeArtisan/codeabbey/raw/master/problem_67/solution.rkt
