http://qkqhxla1.tistory.com/269
https://www.youtube.com/watch?v=ps3VAJNoGJ0&feature=youtu.be&t=20s
http://hackinblood.lasermark.co/coding-hackthis-2/
https://raw.githubusercontent.com/luceatnobis/challenges/master/hackthis.co.uk/coding/2/2.py
