https://rundata.wordpress.com/2013/03/21/overthewire-bandit-wargame-solutions-1-24/
https://infamoussyn.com/2013/11/08/overthewire-bandit-level-0-25-writeup-completed/
https://jdow.io/blog/2017/12/16/overthewire-bandit-wargame-walkthrough/#level-11---12
http://sp4hack.blogspot.com.co/2014/01/overthewire-bandit-level-12-to-level-13.html
https://www.yalpski.net/bandit-wargame/bandit-walkthrough-level-12
https://alexandervoidstar.wordpress.com/2016/02/14/overthewire-bandit-level-12/
https://www.youtube.com/watch?v=OwsklAhdIyk
https://raw.githubusercontent.com/Cathon/mySolutions/master/overthewire/Bandit/Level_12.md
https://medium.com/@Kan1shka9/overthewire-wargames-bandit-walkthrough-df2b86826c67
https://github.com/milescrabill/overthewire-solutions/blob/master/Bandit.md#level-12
https://jhalon.github.io/over-the-wire-bandit2/
https://www.youtube.com/watch?v=34_DDIAkxdY
https://www.youtube.com/watch?v=aB1mYfZquSY
https://medium.com/secttp/overthewire-bandit-level-12-439f655f6fd5
https://hackmethod.com/overthewire-bandit-12/
https://raw.githubusercontent.com/Lorenyx/OverTheWire-Solutions/master/bandit/level_12.md

