https://raw.githubusercontent.com/nayuki/Project-Euler-solutions/master/java/p043.java
https://raw.githubusercontent.com/sile/euler.rs/master/euler_01/src/problem043.rs
https://raw.githubusercontent.com/kdungs/euler/master/043/euler_43.py
https://www.mathblog.dk/project-euler-43-pandigital-numbers-sub-string-divisibility/
https://raw.githubusercontent.com/zimpha/competitive-programming/master/project-euler/volume01/43.cc
