https://raw.githubusercontent.com/rouxbuciu/Code-Challenges/master/codeabbey.com/double%20dice%20roll.py
https://raw.githubusercontent.com/Chainsawkitten/CodeAbbeyProblems/master/src/Problem%2044/Problem%2044.cpp
https://raw.githubusercontent.com/Maximization/CodeAbbey/master/src/DoubleDiceRoll.java
https://raw.githubusercontent.com/AleksandrSD/CodeAbbeyProblems/master/Problem44/Program.cs
https://raw.githubusercontent.com/YetAnotherMinion/YAMScratch/master/CodeAbbey/c-sol/src/44.c
https://raw.githubusercontent.com/mmcdon20/code_abbey/master/src/main/scala/Abbey044.scala
https://raw.githubusercontent.com/JesseClarkND/codeabbey_in_C-NET/master/Double%20Dice%20Roll
