https://cryptocult.wordpress.com/cyber-challenges/enigma-group-solutions/programming/
https://raw.githubusercontent.com/Jean13/Enigma_Programming/master/2_prog.py
https://raw.githubusercontent.com/luceatnobis/challenges/master/enigmagroup.org/programming/2/2.pl
