https://github.com/TheAaronCovington/Java-Coderbyte-Solutions/raw/master/08CheckNums.java
https://github.com/bolducp/coderbyte/raw/master/easy/08_check_nums.py
https://raw.githubusercontent.com/ZLester/Coderbyte-Solutions/master/Easy/08%20-%20Check%20Nums.js
https://raw.githubusercontent.com/Nigelmnz/CoderbyteSolutions/master/08-CheckNums/8.hs
https://raw.githubusercontent.com/aesee/cpp-challenges/master/CheckNums.cpp
https://raw.githubusercontent.com/brbcoding/Coderbyte/master/Easy/CheckNums.rb
