http://hackerorgsolution.blogspot.com.co/2014/09/lower-count.html
https://raw.githubusercontent.com/charles-wangkai/hacker.org/master/challenge/LowerCount.py
https://raw.githubusercontent.com/luceatnobis/challenges/master/hacker.org/lowercount/count.pl
