https://www.mathblog.dk/project-euler-20-sum-digits/
https://raw.githubusercontent.com/nayuki/Project-Euler-solutions/master/java/p020.java
https://raw.githubusercontent.com/nayuki/Project-Euler-solutions/master/mathematica/p020.mathematica
https://raw.githubusercontent.com/smacke/project-euler/master/python/20.py
https://raw.githubusercontent.com/zsiciarz/euler.rs/master/src/solutions/problem20.rs
