https://www.mathblog.dk/greatest-product-in-20x20-grid/
https://raw.githubusercontent.com/kdungs/euler/master/011/euler_11.cpp
https://raw.githubusercontent.com/nayuki/Project-Euler-solutions/master/haskell/p011.hs
https://raw.githubusercontent.com/nayuki/Project-Euler-solutions/master/java/p011.java
https://raw.githubusercontent.com/nayuki/Project-Euler-solutions/master/mathematica/p011.mathematica
https://raw.githubusercontent.com/smacke/project-euler/master/python/11.py
https://raw.githubusercontent.com/sile/euler.rs/master/euler_00/src/problem011.rs
https://raw.githubusercontent.com/zimpha/competitive-programming/master/project-euler/volume01/11.cc
