https://cysecguide.blogspot.com/2017/12/root-me-write-up-perl-command-injection.html
http://anthonyvoza.blogspot.com/2018/10/rootme-ctf-app-security-perl-command.html
https://github.com/rebe11ion/CTFs/blob/master/Rootme-App-Script.md
https://raw.githubusercontent.com/Vinnyz/Root-me-challenge-App-Script/master/Perl%20-%20Command%20injection
