https://raw.githubusercontent.com/sianux1209/Root-me.org/master/app-script/python-input.py
https://cysecguide.blogspot.com/2018/03/root-me-write-up-python-input.html
http://anthonyvoza.blogspot.com/2018/10/rootme-ctf-app-security-python-input.html
https://github.com/Vinnyz/Root-me-challenge-App-Script/blob/master/Python%20-%20input()
https://habr.com/ru/post/321760/
