https://raw.githubusercontent.com/FrankKair/polyglot-euler/master/src/006/p006.clj
https://raw.githubusercontent.com/Dalimil/ProjectEuler/master/Project_Euler_Solutions/Problem_%2306_Sum_square_difference.cpp
https://raw.githubusercontent.com/munyari/programming-problems/master/euler/euler-6.rb
