https://raw.githubusercontent.com/exercism/xrust/master/exercises/hello-world/example.rs
https://raw.githubusercontent.com/rootulp/exercism/master/javascript/hello-world/hello-world.js
https://raw.githubusercontent.com/rootulp/exercism/master/ruby/exercises/hello-world/hello_world.rb
http://introcs.cs.princeton.edu/java/11hello/HelloWorld.java
https://www.programiz.com/c-programming/examples/print-sentence
https://esolangs.org/wiki/Hello_world_program_in_esoteric_languages
http://leto.net/code/asm/hw_assembler.php
https://en.wikibooks.org/wiki/Fortran/Hello_world
http://helloworldcollection.de/#Darkbasic
http://helloworldcollection.de/#Dart
http://helloworldcollection.de/#Algol-68
http://helloworldcollection.de/#Arendelle
http://helloworldcollection.de/#ArnoldC
https://exercism.io/tracks/python/exercises/hello-world/solutions/8c55edc2eaa34192a97a1e4967c8976b
http://helloworldcollection.de/#Actionscript%C2%A0(Flash%C2%A05)
http://helloworldcollection.de/#Agda
http://helloworldcollection.de/#8th
http://helloworldcollection.de/#Assembler%C2%A0(PDP-11)
http://helloworldcollection.de/#ATS
http://helloworldcollection.de/#Blender

