https://maskray.me/blog/2013-12-02-redtigers-hackit-wargame
http://hacktracking.blogspot.com.co/2013/08/redtigers-hackit-wargame-level-6.html
https://joizel.readthedocs.io/ko/latest/wargame/web/[redtiger]%20level6.html
http://ju.outofmemory.cn/entry/107022

