https://www.youtube.com/watch?v=vC_-5z2uukk
https://www.youtube.com/watch?v=gTESrTY3U1E
http://sp4hack.blogspot.com.co/2012/09/hack-this-site-realistic-8.html
http://www.amitghosh.net/hts-realistic-mission-8-solution/
https://www.aldeid.com/wiki/Hackthissite/Realistic/Level8
https://www.youtube.com/watch?v=5gRQnRdb5MU
