https://alexandervoidstar.wordpress.com/2015/09/13/hackthis-javascript-level-3/
https://www.youtube.com/watch?v=TLtihY2lnfA
https://www.youtube.com/watch?v=I6dBZvYvuw0
https://www.youtube.com/watch?v=xLtVXCMxY5g
