https://raw.githubusercontent.com/Daeinar/cryptopals/master/src/c22.rs
https://raw.githubusercontent.com/jaybosamiya/cryptopals-solutions/master/set3/22/mersenne.py
https://raw.githubusercontent.com/jaybosamiya/cryptopals-solutions/master/set3/22/run.py
https://raw.githubusercontent.com/akalin/cryptopals-python3/master/challenge22.py
https://raw.githubusercontent.com/technion/matasano_challenge/master/set3/chal22/chal22.rb
