https://www.youtube.com/watch?v=kDFs-66Fz4Y&t=29s
https://github.com/njk464/pwnable.kr/blob/master/flag.sol
https://github.com/smholsen/pwnable.kr/blob/master/4-flag/readme.md
https://gist.github.com/ihciah/0ca68da3e32e38818bb9#4-flag
https://www.youtube.com/watch?v=Nmoi9UoiuBM
https://www.youtube.com/watch?v=l7dPPmVeRDw
