https://raw.githubusercontent.com/nikzsaz/Codeforces-solution/master/139A_petterAndBook.cpp
https://raw.githubusercontent.com/o-panda-o/MySolutions/master/Implementation/Code_139A_PetrAndBook.java
https://raw.githubusercontent.com/changyuheng/codeforces-solutions/master/139a.py
https://raw.githubusercontent.com/Erfaniaa/Codeforces/master/139A-PetrandBook.pas
