https://raw.githubusercontent.com/mneudert/codeeval/master/easy/working-experience/js.js
https://raw.githubusercontent.com/pascal-bourut/codeeval-challenges/master/easy/139%20-%20Working%20experience/139.php
https://raw.githubusercontent.com/unrealities/code-eval/master/easy/139_WorkingExperience/ruby/lib/working_experience.rb
