https://z3r0securitydotorg.wordpress.com/2016/04/10/php-filters-root-me-challenge/
https://www.youtube.com/watch?v=s3XQ1n5kdeQ
https://www.youtube.com/watch?v=6fIKiMgdNk8
https://www.youtube.com/watch?v=DuHJ6t7qUtA
https://www.youtube.com/watch?v=FQqXdAjjzaw
https://www.youtube.com/watch?v=jX4pI8uE35g
https://www.youtube.com/watch?v=h5AaLrVzzDw
https://www.youtube.com/watch?v=IC5Sp7HXwWw
https://www.youtube.com/watch?v=Bmq5TvvpNTk
https://www.youtube.com/watch?v=t6IhocvqkTY
https://www.youtube.com/watch?v=SfaOfRucXFs
