https://raw.githubusercontent.com/haotian-wu/Hackerrank_solutions/master/Warmup/birthday-cake-candles.cpp
https://raw.githubusercontent.com/RyanFehr/HackerRank/master/Algorithms/Warmup/Birthday%20Cake%20Candles/Solution.cs
https://raw.githubusercontent.com/RyanFehr/HackerRank/master/Algorithms/Warmup/Birthday%20Cake%20Candles/Solution.java
https://raw.githubusercontent.com/danhenriquesc/hackerrank/master/algorithms/warmup/birthday_cake_candles.php
https://raw.githubusercontent.com/anujdutt9/Hackerrank/master/Python3%20Code/Birthday-Cake-Candles.py
