https://rundata.wordpress.com/2013/03/21/overthewire-bandit-wargame-solutions-1-24/
https://infamoussyn.com/2013/11/08/overthewire-bandit-level-0-25-writeup-completed/
https://jdow.io/blog/2017/12/16/overthewire-bandit-wargame-walkthrough/#level-8---9
https://www.yalpski.net/bandit-wargame/bandit-walkthrough-level-9
http://sp4hack.blogspot.com.co/2014/01/overthewire-bandit-level-9-to-level-10.html
https://raw.githubusercontent.com/Cathon/mySolutions/master/overthewire/Bandit/Level_9.md
https://medium.com/@Kan1shka9/overthewire-wargames-bandit-walkthrough-df2b86826c67
https://github.com/milescrabill/overthewire-solutions/blob/master/Bandit.md#level-9
https://www.youtube.com/watch?v=kQavV7biOJY
https://www.youtube.com/watch?v=34_DDIAkxdY
https://www.youtube.com/watch?v=NReJMvYLWQI
https://www.youtube.com/watch?v=xoN2LCKZMrI
https://medium.com/secttp/overthewire-bandit-level-9-cb1b95453aa4
https://hackmethod.com/overthewire-bandit-9/
https://raw.githubusercontent.com/Lorenyx/OverTheWire-Solutions/master/bandit/level_9.md
