https://raw.githubusercontent.com/mpyrozhok/coding-challenges/master/codeeval/haskell/moderate/numberofones.hs
https://raw.githubusercontent.com/nikai3d/ce-challenges/master/moderate/num_of_ones.c
https://raw.githubusercontent.com/nikai3d/ce-challenges/master/moderate/num_of_ones.clj
https://raw.githubusercontent.com/nikai3d/ce-challenges/master/moderate/num_of_ones.rb
https://raw.githubusercontent.com/mpillar/codeeval/master/1-moderate/number-of-ones/Main.java
