https://www.youtube.com/watch?v=nnQfeJoArpM
https://cysecguide.blogspot.com/2017/10/root-me-write-up-sudo-weak-configuration.html
https://medium.com/@15520767/app-script-sudo-weak-configuration-6dbe810c654a
http://www.drow.info/?msy4Wg
