https://raw.githubusercontent.com/mpillar/codeeval/master/0-easy/mixed-content/Main.java
https://raw.githubusercontent.com/pascal-bourut/codeeval-challenges/master/easy/115%20-%20Mixed%20content/115.js
https://raw.githubusercontent.com/pascal-bourut/codeeval-challenges/master/easy/115%20-%20Mixed%20content/115.php
https://raw.githubusercontent.com/jtibbertsma/code-eval/master/mixed-content/mixed.rb
