https://raw.githubusercontent.com/spnow/challenges-1/master/root-me/app-script/ELF32-system1
https://underc0de.org/foro/soluciones-de-wargames/(root-me)-elf32-system-1/msg104936/?PHPSESSID=4m0p1k9o9gvlqg0mqji8jf1q21#msg104936
https://stevendcampbell.blogspot.com/2016/05/exploiting-suid-binary-on-root-meorg.html
https://medium.com/@15520767/app-script-bash-system-1-500a11b84d7e
