https://raw.githubusercontent.com/rootulp/exercism/master/java/nucleotide-count/src/main/java/DNA.java
https://raw.githubusercontent.com/rootulp/exercism/master/javascript/nucleotide-count/nucleotide-count.js
https://raw.githubusercontent.com/rootulp/exercism/master/ruby/exercises/nucleotide-count/nucleotide_count.rb
https://exercism.io/tracks/csharp/exercises/nucleotide-count/solutions/8c4822bd5a314568a6aec1eb65e25778

