https://www.mathblog.dk/sum-of-all-primes-below-2000000-problem-10/
https://raw.githubusercontent.com/nayuki/Project-Euler-solutions/master/haskell/p010.hs
https://raw.githubusercontent.com/nayuki/Project-Euler-solutions/master/java/p010.java
https://raw.githubusercontent.com/nayuki/Project-Euler-solutions/master/mathematica/p010.mathematica
https://raw.githubusercontent.com/smacke/project-euler/master/python/10.py
https://raw.githubusercontent.com/zsiciarz/euler.rs/master/src/solutions/problem10.rs
https://raw.githubusercontent.com/zimpha/competitive-programming/master/project-euler/volume01/10.cc
