https://raw.githubusercontent.com/IncludeZ/root-me/master/Web-Server/HTTP%20Headers
https://raw.githubusercontent.com/anomen-s/programming-challenges/master/root-me.org/Web-Server/HTTP-Headers/run.sh
https://hackinblood.lasermark.co/web-server-root-me-2/
https://bitbelle.wordpress.com/portfolio/root-me-web-server-challenge-solutions/
https://gotheflag.blogspot.com/2018/12/rootme-http-headers.html
https://wn.com/mobile/challenge_root_me_http_headers
http://n3k0sec.top/2018/03/30/root-me-web-server/
https://sithlab.tistory.com/1650
https://www.securecorp.co.kr/6
http://anthonyvoza.blogspot.com/2018/11/rootme-ctf-app-security-python-pickle.html
http://www.frankkung.com/2015/10/09/write-up-web-server-http-headers-15-points/
http://exp-blog.com/2019/01/13/pid-2968/
https://www.youtube.com/watch?v=WexDfsQT3sE
