https://raw.githubusercontent.com/adityagupta1089/Codeforces-Solutions/master/P25A.java
https://raw.githubusercontent.com/dwiajik/codeforces/master/25A.py
https://raw.githubusercontent.com/fuwutu/CodeForces/master/25A%20-%20IQ%20test.cpp
