https://raw.githubusercontent.com/pascal-bourut/codeeval-challenges/master/moderate/150%20-%20Roman%20And%20Arabic/150.js
https://raw.githubusercontent.com/pascal-bourut/codeeval-challenges/master/moderate/150%20-%20Roman%20And%20Arabic/150.php
https://raw.githubusercontent.com/nikai3d/ce-challenges/master/moderate/roman_and_arabic.c
https://raw.githubusercontent.com/nikai3d/ce-challenges/master/moderate/roman_and_arabic.go
https://raw.githubusercontent.com/nikai3d/ce-challenges/master/moderate/roman_and_arabic.hs
https://raw.githubusercontent.com/nikai3d/ce-challenges/master/moderate/roman_and_arabic.lua
https://raw.githubusercontent.com/nikai3d/ce-challenges/master/moderate/roman_and_arabic.rb
