https://github.com/feix/ctf-writeup/blob/master/canyouhackit/web/solution6
https://www.youtube.com/watch?v=JtXeD9pNznA&feature=youtu.be&t=2m34s
http://c6h4cl2.lab.uy.to/1478
http://sithlab.tistory.com/m/1478
