https://raw.githubusercontent.com/mpillar/codeeval/master/0-easy/max-range-sum/main.py
https://raw.githubusercontent.com/pluralism/CodeEval/master/Sum%20to%20Zero.cpp
https://raw.githubusercontent.com/pascal-bourut/codeeval-challenges/master/moderate/81%20-%20Sum%20to%20Zero/81.js
https://raw.githubusercontent.com/pascal-bourut/codeeval-challenges/master/moderate/81%20-%20Sum%20to%20Zero/81.php
https://raw.githubusercontent.com/TheCK/codeChallenges/master/codeEval/src/main/java/org/ck/codeEval/medium/sumToZero/Main.java
https://raw.githubusercontent.com/nikai3d/ce-challenges/master/moderate/sum4.r
https://raw.githubusercontent.com/nikai3d/ce-challenges/master/moderate/sum4.pl
https://raw.githubusercontent.com/nikai3d/ce-challenges/master/moderate/sum4.lua
https://raw.githubusercontent.com/nikai3d/ce-challenges/master/moderate/sum4.hs
https://raw.githubusercontent.com/nikai3d/ce-challenges/master/moderate/sum4.go
https://raw.githubusercontent.com/nikai3d/ce-challenges/master/moderate/sum4.c
